{
  "uuid": "%uuid%",
  "name": "LabyTwitter",
  "author": "Summerfeeling",
  "description": "Shows Twitter follower count of any user you want to",
  "version": 1,
  "category": 2,
  "mainClass": "de.summerfeeling.labytwitter.LabyTwitter",
  "icon": "https://i.imgur.com/LwIEYRw.png"
}